Data Exploration
…
# A tibble: 3 × 1
  file                                  
  <chr>                                 
1 clt19catsStops.csv, clt20catsStops.csv
2 clt18catsStops.csv, clt19catsStops.csv
3 clt19catsStops.csv, clt22catsStops.csv

busstop_data |>
  filter(orgnl_file == "clt24catsStops.csv") |>
  arrange(StopID)

# A tibble: 2,992 × 11
   StopID        x       y Bench Shelter routes    Direction Pole_Locat Sidewalk
    <dbl>    <dbl>   <dbl> <chr> <chr>   <chr>     <chr>     <chr>      <chr>   
 1     40 1453640. 543460. <NA>  <NA>    4         inbound   rear faci… sidewalk
 2    120 1424129. 535050. <NA>  <NA>    235, 60   outbound  forward f… sidewalk
 3    126 1423809. 536203. <NA>  <NA>    235, 60   inbound   forward f… sidewalk
 4    127 1423858. 536575. <NA>  <NA>    235, 60   outbound  forward f… sidewalk
 5    140 1424115. 535018. <NA>  <NA>    235, 60   inbound   forward f… <NA>    
 6    160 1477221. 534317. Bench <NA>    221, 9    inbound   forward f… sidewalk
 7    170 1479217. 533501. <NA>  Shelter 221, 40x… inbound   forward f… sidewalk
 8    180 1479323. 533416. <NA>  Shelter 221, 40x… outbound  forward f… sidewalk
 9    183 1471247. 573835. <NA>  <NA>    50        not appl… other      sidewalk
10    200 1460865. 561616. <NA>  <NA>    22        inbound   forward f… <NA>    
# ℹ 2,982 more rows
# ℹ 2 more variables: Trans_P <chr>, orgnl_file <chr>
…
